hexbur provides several layers of information for Burkina Faso, particularly useful for analyzing agricultural systems • hexbur
…
Basic hex grids plot

The package is based on a hexagonal grid of Burkina Faso, to which data layers can be added. This grid may be loaded as follows, using the hex_map() function

library(hexbur)
hex <- hex_map() # with no args.
hex
#> Simple feature collection with 906 features and 1 field
#> Geometry type: MULTIPOLYGON
#> Dimension:     XY
#> Bounding box:  xmin: -5.511255 ymin: 9.415337 xmax: 2.407427 ymax: 15.08311
#> Geodetic CRS:  WGS 84
#> # A tibble: 906 × 2
#>    hex_id                                                                   geom
#>     <int>                                                     <MULTIPOLYGON [°]>
#>  1      1 (((-5.421255 10.32259, -5.421255 10.40261, -5.50264 10.4496, -5.50263…
#>  2      2 (((-5.464444 10.58552, -5.421255 10.61045, -5.421255 10.71438, -5.459…
#>  3      3 (((-5.44708 10.90732, -5.421255 10.92222, -5.421255 11.02614, -5.4881…
#>  4      4 (((-5.50264 10.4496, -5.421255 10.40261, -5.331255 10.45457, -5.33125…
#>  5      5 (((-5.459337 10.73637, -5.421255 10.71438, -5.331255 10.76634, -5.331…
#>  6      6 (((-5.488173 11.06478, -5.421255 11.02614, -5.331255 11.07811, -5.331…
#>  7      7 (((-5.331255 11.80052, -5.331255 11.80557, -5.352185 11.81766, -5.354…
#>  8      8 (((-5.241255 10.31451, -5.241255 10.40261, -5.331255 10.45457, -5.421…
#>  9      9 (((-5.241255 10.61045, -5.241255 10.71438, -5.331255 10.76634, -5.421…
#> 10     10 (((-5.241255 10.92222, -5.241255 11.02614, -5.331255 11.07811, -5.421…
#> # ℹ 896 more rows
…
